com/mycompany/databaseproject/TestUserDao.class
com/mycompany/databaseproject/DeleteDatabase.class
com/mycompany/databaseproject/ConnectDatabase.class
com/mycompany/databaseproject/dao/Dao.class
com/mycompany/databaseproject/model/User.class
com/mycompany/databaseproject/service/UserService.class
com/mycompany/databaseproject/SelectDatabase.class
com/mycompany/databaseproject/TestUserService.class
com/mycompany/databaseproject/InsertDatabase.class
com/mycompany/databaseproject/UpdateDatabase.class
com/mycompany/databaseproject/dao/UserDao.class
com/mycompany/databaseproject/helper/DatabaseHelper.class
